MCCS Facilities Exploratory Analysis
…
Exploring Q-Rating

## # A tibble: 36 x 4
## # Groups:   op_activity [9]
##    op_activity               q_rating     n q_rating_pct
##    <chr>                     <chr>    <int>        <dbl>
##  1 Children & Youth Programs Q1         135       0.572 
##  2 Children & Youth Programs Q2          83       0.352 
##  3 Children & Youth Programs Q3          15       0.0636
##  4 Children & Youth Programs Q4           3       0.0127
##  5 Clubs                     Q1          14       0.230 
##  6 Clubs                     Q2          23       0.377 
##  7 Clubs                     Q3          22       0.361 
##  8 Clubs                     Q4           2       0.0328
##  9 Commercial Recreation     Q1         169       0.357 
## 10 Commercial Recreation     Q2         218       0.461 
## # ... with 26 more rows
…
##  4 A       Q4          23       0.0249
##  5 B       Q1         662       0.525 
##  6 B       Q2         417       0.330 
##  7 B       Q3         154       0.122 
##  8 B       Q4          29       0.0230
##  9 C       Q1         351       0.405 
## 10 C       Q2         353       0.407 
## 11 C       Q3         136       0.157 
## 12 C       Q4          27       0.0311
## 13 L       Q1          17       0.198 
## 14 L       Q2          52       0.605 
## 15 L       Q3          16       0.186 
## 16 L       Q4           1       0.0116

## # A tibble: 24 x 4
## # Groups:   region [6]
##    region  q_rating     n q_rating_pct
##    <chr>   <chr>    <int>        <dbl>
##  1 MCIEAST Q1         531       0.464 
##  2 MCIEAST Q2         423       0.369 
##  3 MCIEAST Q3         160       0.140 
##  4 MCIEAST Q4          31       0.0271
##  5 MCINCR  Q1          36       0.321 
##  6 MCINCR  Q2          40       0.357 
##  7 MCINCR  Q3          34       0.304 
##  8 MCINCR  Q4           2       0.0179
##  9 MCIPAC  Q1         246       0.402 
## 10 MCIPAC  Q2         248       0.405 
## # ... with 14 more rows

## # A tibble: 83 x 4
## # Groups:   installation [26]
##    installation q_rating     n q_rating_pct
##    <chr>        <chr>    <int>        <dbl>
##  1 Camp Elmore  Q1           5       0.455 
##  2 Camp Elmore  Q3           1       0.0909
##  3 Camp Elmore  Q4           5       0.455 
##  4 Camp Mujuk   Q1           9       0.692 
##  5 Camp Mujuk   Q2           4       0.308 
##  6 Garden City  Q3           1       1     
##  7 Kansas City  Q2           2       0.667 
##  8 Kansas City  Q3           1       0.333 
##  9 MARFORRES    Q1          10       0.769 
## 10 MARFORRES    Q2           2       0.154 
## # ... with 73 more rows
…
## # A tibble: 26 x 7
##    installation      avg_age median_age sd_age max_age min_age range_age
##    <chr>               <dbl>      <dbl>  <dbl>   <dbl>   <dbl>     <dbl>
##  1 Camp Elmore            37         37     18      76      12        64
##  2 Camp Mujuk             16         17      2      17      11         6
##  3 Garden City            98         98      0      98      98         0
##  4 Kansas City            54         57      6      59      47        12
##  5 MARFORRES              26         10     29      80       3        77
##  6 MBW (8th & I)          42         17     37     113      17        96
##  7 MCAGCC 29 Palms        32         31     21      68       5        63
##  8 MCAS Beaufort          31         25     20      78       4        74
##  9 MCAS Cherry Point      39         34     24      79       5        74
## 10 MCAS Futenma           47         52     15      62      17        45
## # ... with 16 more rows
…
