FY24-FY28 Recapitalization Plan
…
      PPBEA

  Home

  Facilities

  Facilities ReCap Plan

  Official Lodging

  Cat C

FY24-FY28 Recapitalization Plan

## # A tibble: 297 x 10
##    region  installation   rpuid op_activity   fci fci_dt     build_dt   q_rating
##    <chr>   <chr>          <chr> <chr>       <dbl> <date>     <date>     <chr>   
##  1 MCIPAC  MCB Butler     1045~ Clubs          91 2018-01-24 2009-09-09 Q1      
##  2 SLTI    MCRD San Diego 55928 Exchange O~    85 2019-04-18 1977-07-01 Q2      
##  3 SLTI    MCRD San Diego 55928 Exchange O~    85 2019-04-18 1977-07-01 Q2      
##  4 MCIWEST MCAS Miramar   1139~ Exchange O~    94 2019-10-02 2012-05-25 Q1      
##  5 MCIWEST MCB Pendleton  27435 Exchange O~    88 2019-06-18 2001-03-01 Q2      
##  6 MCIEAST MCB Lejeune    39929 Exchange O~    86 2020-01-28 1993-09-01 Q2      
##  7 MCIEAST MCB Lejeune    39929 Food & Bev~    86 2020-01-28 1993-09-01 Q2      
##  8 MCIEAST MCB Lejeune    39929 Exchange O~    86 2020-01-28 1993-09-01 Q2      
##  9 MCIEAST MCB Lejeune    39929 Exchange O~    86 2020-01-28 1993-09-01 Q2      
## 10 MCIPAC  MCB Butler     1050~ Commercial~    94 2018-01-21 2009-08-04 Q1      
## # ... with 287 more rows, and 2 more variables: net_profit <dbl>, Asset <dbl>

## # A tibble: 118 x 10
##    region  installation  rpuid op_activity    fci fci_dt     build_dt   q_rating
##    <chr>   <chr>         <chr> <chr>        <dbl> <date>     <date>     <chr>   
##  1 MCIWEST MCB Pendleton 25034 Exchange Op~    83 2019-05-21 1977-09-15 Q2      
##  2 MCIWEST MCB Pendleton 29503 Exchange Op~    55 2019-08-21 1944-07-01 Q4      
##  3 MCIEAST MCB Lejeune   39446 Exchange Op~    91 2019-06-06 1972-09-01 Q1      
##  4 MCIPAC  MCB Hawaii    25984 Exchange Op~    83 2017-10-16 1973-07-01 Q2      
##  5 SLTI    MCAGCC 29 Pa~ 5490~ Food & Beve~    86 2013-11-11 1961-07-01 Q2      
##  6 MCIWEST MCB Pendleton 25020 Exchange Op~    78 2019-05-22 1966-07-01 Q3      
##  7 MCIWEST MCB Pendleton 28557 Exchange Op~    88 2015-12-28 1942-07-01 Q2      
##  8 MCIPAC  MCB Hawaii    25981 Exchange Op~    89 2017-09-14 1944-07-01 Q2      
##  9 MCIEAST MCB Lejeune   41891 Exchange Op~    79 2020-09-21 1992-11-03 Q3      
## 10 MCIWEST MCB Pendleton 21599 Exchange Op~    88 2019-05-09 1981-07-01 Q2      
## # ... with 108 more rows, and 2 more variables: net_profit <dbl>, Asset <dbl>
…
